{
	"dependencies": {
		"workflows": {}
	},
	"program": {
		"project": [{
				"comment": "PM Yearly",
				"project": [11],
				"interval": 12,
				"case": 3
			},{
				"comment": "PM Six Monthly",
				"project": [10],
				"interval": 6,
				"case": 3
			},{
				"comment": "PM Four Monthly",
				"project": [9],
				"interval": 4,
				"case": 3
			},{
				"comment": "PM Quarterly",
				"project": [8],
				"interval": 3,
				"case": 3
			},{
				"comment": "PM Bi-Monthly",
				"project": [7],
				"interval": 2,
				"case": 3
			},{
				"comment": "PM Monthly",
				"project": [6],
				"interval": 1,
				"case": 3
			},{
				"comment": "PM Fortnightly",
				"project": [5],
				"unit": "day",
				"interval": 14,
				"case": 3
			},{
				"comment": "PM Weekly",
				"project": [4],
				"unit": "day",
				"interval": 7,
				"case": 3
			}],
		"case": [{
				"project": true,
				"case": [3],
				"task": {
					"type": 1
				}
			}]
	},
	"models/customer": {
		"prototype": {
			"assets": {
				"asset": {
					"record": "customrecord_nx_asset",
					"filters": [
						["custrecord_nx_asset_customer","anyof","${this.id}"],"or",
						["custrecord_nxfsm_asset_bill_to_company","anyof","${this.id}"]
					]
				}
			}
		}
	},
	"models/asset": {
		"uniqueFormula": "formulatext: CASE WHEN {parent} IS NOT NULL THEN NVL({custrecord_nxc_fam_asset},'') ELSE {custrecord_nx_asset_address_text} END",
		"prototype": {
			"map": {
				"autoname": null,
				"customers": "formulatext[]:nvl({custrecord_nx_asset_customer.internalid}, 0)||','||nvl({custrecord_nxfsm_asset_bill_to_company.internalid}, 0)"
			}
		}
	},
	"models/project": {
		"prototype": {
			"defaults": {
				"customform": 223
			},
			"map": {
				"programend": "custentity_nx_program_create_until"
			}
		}
	},
	"models/case": {
		"prototype": {
			"defaults": {
				"customform": 224
			},
			"map": {}
		}
	},
	"views/case/tasks": {
		"el": {
			"addstart": {
				"value": "8:00 am"
			},
			"addend": {
				"value": "5:00 pm"
			},
			"addpriority": {
				"type": "select",
				"label": "Priority",
				"parent": "tab",
				"layout": "midrow",
				"width": 180,
				"options": [{
						"id": "MEDIUM",
						"label": "Medium"
					},{
						"id": "LOW",
						"label": "Low"
					},{
						"id": "HIGH",
						"label": "High"
					}]
			},
			"priority": {
				"type": "select",
				"label": "Category",
				"parent": "list",
				"required": true,
				"options": [{
						"id": "MEDIUM",
						"label": "Medium"
					},{
						"id": "LOW",
						"label": "Low"
					},{
						"id": "HIGH",
						"label": "High"
					}]
			}
		}
	},
	"models/task": {
		"prototype": {
			"autoclose": true,
			"defaults": {
				"type": 1,
				"customform": 225,
				"start": 32400000,
				"end": 36000000
			},
			"map": {
				"autoname": "formulatext:substr({custevent_nx_task_type}||' '||{custevent_nx_task_number} || ' ' || {custevent_nx_task_asset}, 1, 80)",
				"assetid": "custevent_nx_task_asset",
				"child": "formulatext[]:nvl({case.custevent_nxfsm_child_assets.id},0)"
			}
		}
	},
	"models/transaction": {
		"prototype": {
			"entityMap": {
				"item": [{
						"item": "item.item!",
						"price": "item.price!",
						"rate": "item.rate!",
						"amount": "item.amount!"
					}]
			}
		}
	},
	"models/times": {
		"comment": "customform = internal ID of NextService Expense Report [custform_nx_time_entry]",
		"prototype": {
			"defaults": {
				"customform": 226
			}
		}
	},
	"models/salesorder": {
		"comment": "customform = internal ID of NextService Sales Order [custform_nx_sales_order]",
		"prototype": {
			"defaults": {
				"customform": 173
			}
		}
	},
	"models/consumables": {
		"comment": "customform = internal ID of NextService Inventory Adjustment [custform_nx_inventory_adjustment]",
		"prototype": {
			"defaults": {
				"customform": 174
			}
		}
	},
	"views/schedule": {
		"hidden": false
	},
	"views/customer/profitability": {
		"hidden": true
	},
	"views/project/profitability": {
		"hidden": true
	},
	"views/asset/profitability": {
		"hidden": true
	},
	"billing": {
		"task": [{
				"comment": "Billable [], Non-Billable [], Warranty []",
				"project": [1],
				"case": true,
				"task": [1],
				"billing": 1
			},{
				"project": [4,5,6,7,8,9,10,11],
				"case": [1],
				"task": [1],
				"billing": 1
			},{
				"project": [13],
				"case": true,
				"task": [1],
				"billing": 3
			},{
				"project": [12],
				"case": true,
				"task": [1],
				"billing": 5
			},{
				"project": [true,false],
				"case": [true,false],
				"task": true,
				"billing": 8
			}]
	},
	"routes/mobile": {
		"inject": "<style type='text/css'>div[required]:after  { content:' * required'; } .suite-section-heading{padding-left: 0px !important;margin-left: -5px !important;background-color: #F1F1F1 !important;} .element [type=checkbox] svg{pointer-events: none;width:33px !important;height:33px !important;}</style>",
		"icons": {
			"check_box": "<path d=\"M92.038,24.333l-8.62-8.622c-0.303-0.302-0.712-0.473-1.141-0.473c-0.428,0-0.838,0.171-1.141,0.473 L49.987,46.86l-6.07-6.068c-0.63-0.63-1.651-0.63-2.282,0l-8.622,8.622c-0.303,0.302-0.473,0.713-0.473,1.141 c0,0.427,0.17,0.838,0.473,1.141l15.782,15.778c0.302,0.302,0.712,0.473,1.141,0.473c0.019,0,0.037-0.01,0.056-0.01 c0.016,0,0.033,0.009,0.05,0.009c0.414,0,0.825-0.158,1.141-0.473l40.855-40.857C92.668,25.984,92.668,24.963,92.038,24.333z\"/><g><path d=\"M72.022,53.625v21.159H27.978V30.74h31.06l9.979-9.978H23.193v0.007c-0.023,0-0.044-0.007-0.068-0.007 c-2.788,0-5.045,2.229-5.113,5H18v54h0.013c0.067,2.728,2.259,4.92,4.987,4.987v0.013h0.125l0.001,0c0,0,0,0,0,0h53.748l0.001,0 c0,0,0,0,0,0H77v-0.013c2.729-0.067,4.92-2.259,4.987-4.987H82V43.647L72.022,53.625z\"/></g>",
			"safety_cone": "<path d=\"M97.017,82.01v-4.62h-0.002l0.002-0.018c-0.01-1.335-1.092-2.407-2.42-2.417v-0.003h-7.512L54.048,17.732 l-0.013,0.008c-0.732-1.503-2.26-2.547-4.044-2.547c-1.832,0-3.401,1.096-4.108,2.665L12.92,74.951H5.386 c-1.347,0-2.44,1.091-2.44,2.438v4.863h0.012c-0.002,0.039-0.012,0.075-0.012,0.114c0,1.347,1.092,2.439,2.44,2.439h89.21v-0.004 c0.013,0,0.024,0.004,0.037,0.003c1.346-0.01,2.43-1.111,2.42-2.458C97.053,82.232,97.033,82.122,97.017,82.01z M47.513,25.159 h4.977l5.748,9.957H41.765L47.513,25.159z M36.017,45.072h27.971l5.748,9.957H30.268L36.017,45.072z M18.766,74.951l5.748-9.957 H75.49l5.748,9.957H18.766z\"/>",
			"hyper-link": "<path d=\"M151.764,10.894c-14.522-14.522-38.152-14.525-52.676-0.008l0.003,0.003L76.112,33.872l10.607,10.605l22.983-22.988 l-0.002-0.002c8.678-8.663,22.785-8.658,31.457,0.014c8.673,8.672,8.672,22.786,0,31.461l-34.486,34.484 c-4.201,4.202-9.787,6.516-15.729,6.516c-5.942,0-11.529-2.314-15.73-6.516L64.605,98.052c7.035,7.035,16.389,10.91,26.338,10.91 c9.949,0,19.303-3.875,26.335-10.91l34.487-34.484C166.284,49.043,166.284,25.413,151.764,10.894z\"/><path d=\"M52.96,141.162L52.96,141.162c-8.675,8.67-22.788,8.668-31.461-0.005c-8.673-8.675-8.673-22.791-0.001-31.465L55.98,75.21 c8.675-8.674,22.789-8.674,31.462,0L98.05,64.604c-14.524-14.523-38.154-14.524-52.676,0L10.89,99.086 c-14.519,14.523-14.519,38.154,0.001,52.678c7.263,7.262,16.801,10.893,26.341,10.892c9.536,0,19.074-3.629,26.333-10.887 l0.002-0.001l22.984-22.99l-10.608-10.606L52.96,141.162z\"/>"
		},
		"addable": true,
		"event": {
			"element": {
				"asset": {
					"options": {
						"//": "IS00391 Temporary fix for New Case/Task Asset search returns no results",
						"filters": [
							["isinactive","is","F"],"and",
							["formulatext:{name}||' '||nvl(trim({custrecord_nx_asset_customer.firstname}||' '||{custrecord_nx_asset_customer.lastname}),{custrecord_nx_asset_customer.companyname})","contains","${ options.search || '' }"]
						]
					}
				},
				"job": {
					"options": {
						"active": {
							"//": "IS00391 Temporary fix for New Case/Task Asset search returns no results",
							"filters": [
								["custentity_nx_asset","is","${ options.asset || 0 }"],"and",
								[
									["startdate","isempty",""],"or",
									["startdate","onorbefore","{date}"]
								],"and",
								[
									["enddate","isempty",""],"or",
									["enddate","onorafter","{date}"]
								]
							]
						}
					}
				},
				"customer": {
					"options": {
						"//": "IS00391 Temporary fix for New Case/Task Asset search returns no results",
						"filters": [
							["formulatext:nvl(trim({firstname}||' '||{lastname}),{companyname})","contains","${ options.search || '' }"],"and","${ var customers = typeof asset != 'undefined' && asset && new Asset(asset).customers; return customers && ((customers instanceof Array) ? ['internalid', 'anyof', customers] : ['internalid', 'noneof', '@NONE@']) }"]
					}
				}
			},
			"article": {
				"task": {
					"map": {
						"label": "formulatext: {custevent_nx_task_type}||NVL2({case.custevent_nx_case_type},' : '||{case.custevent_nx_case_type}, '') || NVL2({custevent_nx_task_asset},' : '||{custevent_nx_task_asset}, '')",
						"sublabel": "formulatext:{custevent_nx_task_number} || ' for ' || NVL2({custevent_nx_customer.companyname}, {custevent_nx_customer.companyname}, ' ') || NVL2 ({message}, ' : ' || {message},'') || NVL2({message},'', ' : ' || SUBSTR({case.custevent_nx_case_details}, 1, 80))",
						"body": "formulatext:'<p>Case Assignee : '||{case.assigned}||'</p><p>Case Details : '||trim({case.custevent_nx_case_details}||'</p><p>Task Message : '||{message})||'</p>'||'<p>'||{custevent_nx_task_type}||' task number '||{custevent_nx_task_number}||\t\t\t\t\t\t\t\t\t\t\tnvl2({job.internalid}, ' in '||{job.custentity_nx_project_type}, '')||\t\t\t\t\t\t\t\t\t\t\tnvl2({case.internalid}, ' '||{case.custevent_nx_case_type}||' case number '||{case.casenumber}, '')||'.'||\t\t\t\t\t\t\t\t\t\t\tnvl2({custevent_nx_task_skill}, ' Skills required are '||replace({custevent_nx_task_skill}, ',', ', ')||'.', '')||'</p>'",
						"assetparent": "formulatext: nvl({custevent_nx_task_asset.parent.id},0)",
						"assetparenttf": "custevent_nx_task_asset.parent.id",
						"childcaseassets": "formulatext[]:nvl({case.custevent_nxfsm_child_assets.id},0)",
						"casechildassettf": "case.custevent_nxfsm_child_assets|",
						"customerdepartment": "formulatext: nvl({custevent_nx_customer.custentity_nxc_department.id},0)"
					},
					"resources": [{
							"comment": "PM Case Sub Assets Visit Task",
							"project": [4,5,6,7,8,9,10,11],
							"case": [3],
							"task": 1,
							"asset": true,
							"resources": {
								"array": true,
								"parent": ["contact","asset","times","salesorder","details","order","receive","return","files","actions"],
								"child": {
									"record": "customrecord_nx_asset",
									"filters": ["parent","anyof","{event.asset}"],
									"map": [{
											"id": "formulatext:'asset-'||{internalid}",
											"label": "formulatext:replace({name}, {parent}||' : ')",
											"latitude": "custrecord_nx_asset_latitude",
											"longitude": "custrecord_nx_asset_longitude",
											"asset": "internalid"
										},{
											"id": "formulatext:'assettesting-'||{internalid}",
											"parent": "formulatext:'asset-'||{internalid}",
											"asset": "internalid"
										},{
											"id": "formulatext:'consumables-'||{internalid}",
											"parent": "formulatext:'asset-'||{internalid}",
											"asset": "internalid",
											"min": 0
										},{
											"id": "formulatext:'history-'||{internalid}",
											"parent": "formulatext:'asset-'||{internalid}",
											"asset": "internalid"
										},{
											"id": "formulatext:'files-'||{internalid}",
											"parent": "formulatext:'asset-'||{internalid}",
											"asset": "internalid"
										},{
											"id": "formulatext:'notes-'||{internalid}",
											"parent": "formulatext:'asset-'||{internalid}",
											"asset": "internalid"
										}]
								}
							}
						},{
							"comment": "Project, Break-Fix Case, Task Type = Site Visit - Case has Child Asset",
							"project": [1,2,3],
							"case": [1,3],
							"task": [1],
							"casechildassettf": true,
							"resources": {
								"array": true,
								"parent": ["contact","asset"],
								"child": {
									"record": "customrecord_nx_asset",
									"filters": [
										["internalid","anyof","{event.childcaseassets}"]
									],
									"map": [{
											"id": "formulatext:'asset-'||{internalid}",
											"label": "formulatext:replace({name}, {parent} || ' : ')",
											"latitude": "custrecord_nx_asset_latitude",
											"longitude": "custrecord_nx_asset_longitude",
											"asset": "internalid"
										},{
											"id": "formulatext:'asset-'||{internalid}",
											"parent": "formulatext:'asset-'||{internalid}",
											"asset": "internalid",
											"label": "formulatext:replace({name}, {parent} || ' : ')"
										},{
											"id": "formulatext:'vehiclemeasurements-'||{internalid}",
											"parent": "formulatext:'asset-'||{internalid}",
											"asset": "internalid"
										},{
											"id": "formulatext:'history-'||{internalid}",
											"parent": "formulatext:'asset-'||{internalid}",
											"asset": "internalid"
										}]
								},
								"paren2t": ["times","details","files","actions"]
							}
						},{
							"comment": "Project, Break-Fix Case, Task Type = Site Visit",
							"project": [1,2,3],
							"case": [1,3],
							"task": [1],
							"resources": {
								"array": true,
								"parent": ["contact","asset","vehiclemeasurements","times","details","files","actions"]
							}
						},{
							"comment": "Billable INV and Billable EX Time, Repair Cases, Task Type = Site Visit",
							"project": [1],
							"case": 2,
							"task": [1],
							"resources": ["asset","contact","history","times","files","actions"]
						},{
							"comment": "Billable INV and Billable EX Time, Repair Cases, Task Type = Site Visit",
							"project": true,
							"case": true,
							"task": true,
							"resources": ["asset","contact","history","quote","salesorder","consumables","times","files","order","receive","return","actions"]
						},{
							"comment": "All Projects, All Cases, Task Type = Administration",
							"project": [true],
							"case": [true],
							"task": [2],
							"resources": ["asset","contact","history","times","files","actions"]
						},{
							"comment": "All Projects, All Cases, Task Type = Administration",
							"project": [false],
							"case": [false],
							"task": [2],
							"resources": ["times","actions"]
						}]
				}
			}
		},
		"files": {
			"enable": "commenced"
		},
		"times": {
			"enable": "commenced",
			"article": {
				"defaults": {
					"class": 21,
					"department": "{event.customerdepartment}"
				}
			}
		},
		"notes": {
			"enable": "commenced",
			"element": {
				"body": {
					"type": "richtext",
					"label": "Notes",
					"class": "no-top el-12",
					"required": true
				}
			}
		},
		"details": {
			"label": "Sign Off",
			"enable": "commenced",
			"element": {
				"signoff_div": {
					"value": "DETAILS",
					"type": "inlinehtml",
					"readonly": true,
					"class": "el-12 h4 main-padding suite-section-heading",
					"index": 1
				},
				"actions": {
					"type": "longtext",
					"label": "Actions Taken",
					"placeholder": "Actions taken...",
					"class": "el-12",
					"readonly": "{event.teamuser}",
					"summary": true,
					"index": 2
				},
				"internalnote": {
					"type": "longtext",
					"label": "Internal Note",
					"placeholder": "Internal note...",
					"index": 3
				},
				"customername": {
					"type": "text",
					"label": "Site Manager Name",
					"index": 9
				},
				"customersignature": {
					"type": "signature",
					"label": "Site Manager Signature",
					"index": 11
				},
				"techniciansignature": {
					"type": "signature",
					"label": "Technician Signature",
					"index": 12
				},
				"caseclosed": {
					"hidden": true,
					"index": 13
				}
			},
			"article": {
				"map": {
					"internalnote": "custevent_nxfsm_internal_note",
					"customername": "custevent_nxfsm_customer_name",
					"customersignature": "custevent_nxfsm_customer_signature",
					"techniciansignature": "custevent_nxfsm_technician_signature"
				}
			}
		},
		"actions": {
			"label": "Follow-up Task",
			"max": 1,
			"element": {
				"followuptask_div": {
					"value": "NEW TASK",
					"type": "inlinehtml",
					"readonly": true,
					"class": "el-12 h4 main-padding suite-section-heading",
					"index": 1
				},
				"number": {
					"column": 2
				},
				"type": {
					"label": "Task Type",
					"class": "inline el-12",
					"column": 3
				},
				"message": {
					"label": "Task Details",
					"placeholder": "Task details...",
					"class": "inline el-12",
					"column": 4
				},
				"assigned": {
					"class": "inline el-12",
					"column": 5
				},
				"team": {
					"label": "Team Members",
					"class": "inline el-12",
					"column": 6,
					"value": "{event.teamoptions}"
				},
				"date": {
					"label": "Start Date",
					"class": "inline el-12",
					"column": 7,
					"required": false
				},
				"duedate": {
					"type": "date",
					"label": "Due Date",
					"class": "inline el-12",
					"value": "{event.date}",
					"column": 8,
					"required": true
				},
				"start": {
					"label": "Start Time",
					"class": "inline el-12",
					"value": "9:00 am",
					"column": 10
				},
				"end": {
					"label": "End Time",
					"class": "inline el-12",
					"value": "10:00 am",
					"column": 11
				},
				"resources": {
					"column": 12
				}
			},
			"article": {
				"map": {
					"duedate": "duedate"
				}
			}
		},
		"asset": {
			"element": {
				"description": {
					"hidden": true
				},
				"assetdetails_div": {
					"value": "ASSET INFORMATION",
					"type": "inlinehtml",
					"readonly": true,
					"class": "el-12 h4 main-padding suite-section-heading"
				},
				"name": {
					"label": "Asset Name:",
					"type": "text",
					"readonly": true,
					"class": "inline el-12"
				},
				"serial": {
					"label": "Name",
					"type": "text",
					"readonly": true,
					"class": "inline el-12"
				},
				"famserial": {
					"label": "FAM Serial",
					"type": "text",
					"readonly": true,
					"class": "inline el-12"
				},
				"manufacturer": {
					"label": "Manufacturer:",
					"type": "text",
					"readonly": true,
					"class": "inline el-12"
				},
				"make": {
					"label": "Make:",
					"type": "select",
					"readonly": true,
					"options": "nextservice_asset_make.options",
					"class": "inline el-12"
				},
				"model": {
					"label": "Model:",
					"type": "text",
					"readonly": true,
					"class": "inline el-12"
				},
				"year": {
					"label": "Year:",
					"type": "text",
					"readonly": true,
					"class": "inline el-12"
				},
				"region": {
					"label": "Region:",
					"type": "text",
					"readonly": true,
					"class": "inline el-12"
				},
				"parent": {
					"label": "Parent Asset:",
					"type": "text",
					"readonly": true,
					"class": "inline el-12"
				},
				"customer": {
					"label": "Customer:",
					"type": "text",
					"readonly": true,
					"class": "inline el-12"
				},
				"billtocompany": {
					"label": "Bill To Company:",
					"type": "text",
					"readonly": true,
					"class": "inline el-12"
				},
				"siteinformation_div": {
					"value": "SITE INFORMATION",
					"type": "inlinehtml",
					"readonly": true,
					"class": "el-12 h4 main-padding suite-section-heading"
				},
				"address": {
					"label": "Address:",
					"type": "text",
					"readonly": true,
					"class": "inline el-12"
				},
				"assetactivities_div": {
					"value": "ASSET ACTIVITIES",
					"type": "inlinehtml",
					"readonly": true,
					"class": "el-12 h4 main-padding suite-section-heading"
				},
				"internalnote": {
					"label": "Internal Note:",
					"type": "longtext",
					"class": "inline el-12"
				},
				"assetnotes": {
					"label": "Asset Note:",
					"type": "longtext",
					"class": "inline el-12"
				}
			},
			"article": {
				"map": {
					"image": "formulatext:''",
					"name": "name",
					"serial": "custrecord_nx_asset_serial",
					"region": "custrecord_nx_asset_region#",
					"parent": "parent#",
					"customer": "custrecord_nx_asset_customer#|",
					"address": "custrecord_nx_asset_address_text",
					"latitude": "custrecord_nx_asset_latitude",
					"longitude": "custrecord_nx_asset_longitude",
					"type": "custrecord_nxfsm_asset_type#",
					"internalnote": "custrecord_nxfsm_asset_internal_note",
					"assetnotes": "custrecord_nxfsm_asset_asset_notes",
					"manufacturer": "custrecord_nxfsm_asset_manufacturer",
					"make": {
						"id": "=custrecord_nxfsm_asset_make",
						"label": "custrecord_nxfsm_asset_make#|"
					},
					"model": "custrecord_nxfsm_asset_model#",
					"year": "custrecord_nxfsm_asset_year",
					"famserial": "custrecord_nxc_fam_asset_serial"
				}
			}
		},
		"order": {
			"label": "Request Inventory",
			"icon": "wrench",
			"enable": "commenced"
		},
		"receive": {
			"label": "Receive Inventory",
			"enable": "commenced"
		},
		"return": {
			"label": "Return Inventory",
			"enable": "commenced"
		},
		"vehiclemeasurements": {
			"enable": "commenced",
			"icon": "clipboard",
			"label": "Vehicle Measurements",
			"max": 1,
			"form": {
				"customform": 227,
				"exclude": ["custrecord_nxc_vehicle_task","custrecord_nxc_vehicle_asset","custrecord_nxc_vehicle_parent_asset"]
			},
			"article": {
				"record": "customrecord_nxc_vehicle_measurements",
				"filters": [
					["custrecord_nxc_vehicle_task","anyof","{event.internalid}"],"and",
					["custrecord_nxc_vehicle_parent_asset","anyof","{event.asset}"]
				],
				"filterby": {
					"asset": "{options.asset}"
				},
				"map": {
					"id": "internalid",
					"task": "custrecord_nxc_vehicle_task",
					"asset": "custrecord_nxc_vehicle_asset"
				},
				"defaults": {
					"task": "{event.internalid}",
					"asset": "{options.asset}"
				}
			}
		}
	}
}